%YAML 1.1
%TAG !u! tag:unity3d.com,2011:
--- !u!114 &11400000
MonoBehaviour:
  m_ObjectHideFlags: 0
  m_CorrespondingSourceObject: {fileID: 0}
  m_PrefabInstance: {fileID: 0}
  m_PrefabAsset: {fileID: 0}
  m_GameObject: {fileID: 0}
  m_Enabled: 1
  m_EditorHideFlags: 0
  m_Script: {fileID: 11500000, guid: ee1e8aeaf6b18ae4ba26357b6b259250, type: 3}
  m_Name: F
  m_EditorClassIdentifier: 
  _identifier: F
  _sprite: {fileID: -6426668015567183463, guid: 3d18cd9a526c36f48a5769d52330ec71,
    type: 3}
  _rotationOffset: 0
