%YAML 1.1
%TAG !u! tag:unity3d.com,2011:
--- !u!114 &11400000
MonoBehaviour:
  m_ObjectHideFlags: 0
  m_CorrespondingSourceObject: {fileID: 0}
  m_PrefabInstance: {fileID: 0}
  m_PrefabAsset: {fileID: 0}
  m_GameObject: {fileID: 0}
  m_Enabled: 1
  m_EditorHideFlags: 0
  m_Script: {fileID: 11500000, guid: ee1e8aeaf6b18ae4ba26357b6b259250, type: 3}
  m_Name: S
  m_EditorClassIdentifier: 
  _identifier: S
  _sprite: {fileID: 8083504644574312765, guid: ced289049660c8249a24d77e0aeae44e, type: 3}
  _rotationOffset: 0
