%YAML 1.1
%TAG !u! tag:unity3d.com,2011:
--- !u!114 &11400000
MonoBehaviour:
  m_ObjectHideFlags: 0
  m_CorrespondingSourceObject: {fileID: 0}
  m_PrefabInstance: {fileID: 0}
  m_PrefabAsset: {fileID: 0}
  m_GameObject: {fileID: 0}
  m_Enabled: 1
  m_EditorHideFlags: 0
  m_Script: {fileID: 11500000, guid: ee1e8aeaf6b18ae4ba26357b6b259250, type: 3}
  m_Name: 10
  m_EditorClassIdentifier: 
  _identifier: 10
  _sprite: {fileID: 4142021021139464533, guid: c82d8abc1a6848e40ba4f3ebb0ef18ed, type: 3}
  _rotationOffset: 0
